[gd_scene load_steps=8 format=2]

[ext_resource path="res://Assets/TileSet/TileMap.res" type="TileSet" id=1]
[ext_resource path="res://Entities/Player/Player.tscn" type="PackedScene" id=2]
[ext_resource path="res://Assets/Flag.png" type="Texture" id=3]
[ext_resource path="res://Entities/VictoryFlag.gd" type="Script" id=4]
[ext_resource path="res://UI/HUD.tscn" type="PackedScene" id=5]
[ext_resource path="res://Entities/Goal/Goal.tscn" type="PackedScene" id=6]
[ext_resource path="res://Entities/Meteor/Meteor.tscn" type="PackedScene" id=7]

[node name="Level6" type="Node2D"]
pause_mode = 2

[node name="TileMap" type="TileMap" parent="."]
scale = Vector2( 2, 2 )
tile_set = ExtResource( 1 )
cell_size = Vector2( 32, 32 )
format = 1
tile_data = PoolIntArray( -1245132, 7, 0, -327658, 536870914, 0, -327657, 536870913, 0, -327656, 536870913, 0, -327655, 536870913, 0, -327654, 536870912, 0, -262128, 0, 0, -262127, 1, 0, -262126, 1, 0, -262125, 1, 0, -262124, 1, 0, -262123, 1, 0, -262122, 536870916, 0, -262121, 536870916, 0, -262120, 536870916, 0, -262119, 536870916, 0, -262118, 536870916, 0, -262117, 1, 0, -262116, 1, 0, -262115, 536870913, 0, -262114, 536870913, 0, -262113, 536870913, 0, -262112, 536870913, 0, -262111, 536870913, 0, -262110, 1, 0, -262109, 1, 0, -262108, 1, 0, -262107, 1, 0, -262106, 1, 0, -262105, 1, 0, -262104, 1, 0, -262103, 1, 0, -262102, 1, 0, -262101, 1, 0, -262100, 1, 0, -262099, 1, 0, -262098, 1, 0, -262097, 1, 0, -262096, 1, 0, -262095, 1, 0, -262094, 1, 0, -262093, 1, 0, -196592, 3, 0, -196591, 4, 0, -196590, 4, 0, -196589, 4, 0, -196588, 4, 0, -196587, 4, 0, -196586, 4, 0, -196585, 4, 0, -196584, 4, 0, -196583, 4, 0, -196582, 4, 0, -196581, 4, 0, -196580, 4, 0, -196579, 4, 0, -196578, 4, 0, -196577, 4, 0, -196576, 4, 0, -196575, 4, 0, -196574, 4, 0, -196573, 4, 0, -196572, 4, 0, -196571, 4, 0, -196570, 4, 0, -196569, 4, 0, -196568, 4, 0, -196567, 4, 0, -196566, 4, 0, -196565, 4, 0, -196564, 4, 0, -196563, 4, 0, -196562, 4, 0, -196561, 4, 0, -196560, 4, 0, -196559, 4, 0, -196558, 4, 0, -196557, 4, 0, -131056, 3, 0, -131055, 4, 0, -131054, 4, 0, -131053, 4, 0, -131052, 4, 0, -131051, 4, 0, -131050, 4, 0, -131049, 4, 0, -131048, 4, 0, -131047, 4, 0, -131046, 4, 0, -131045, 4, 0, -131044, 4, 0, -131043, 4, 0, -131042, 4, 0, -131041, 4, 0, -131040, 4, 0, -131039, 4, 0, -131038, 4, 0, -131037, 4, 0, -131036, 4, 0, -131035, 4, 0, -131034, 4, 0, -131033, 4, 0, -131032, 4, 0, -131031, 4, 0, -131030, 4, 0, -131029, 4, 0, -131028, 4, 0, -131027, 4, 0, -131026, 4, 0, -131025, 4, 0, -131024, 4, 0, -131023, 4, 0, -131022, 4, 0, -131021, 4, 0, -65520, 3, 0, -65519, 4, 0, -65518, 4, 0, -65517, 4, 0, -65516, 4, 0, -65515, 4, 0, -65514, 4, 0, -65513, 4, 0, -65512, 4, 0, -65511, 4, 0, -65510, 4, 0, -65509, 4, 0, -65508, 4, 0, -65507, 4, 0, -65506, 4, 0, -65505, 4, 0, -65504, 4, 0, -65503, 4, 0, -65502, 4, 0, -65501, 4, 0, -65500, 4, 0, -65499, 4, 0, -65498, 4, 0, -65497, 4, 0, -65496, 4, 0, -65495, 4, 0, -65494, 4, 0, -65493, 4, 0, -65492, 4, 0, -65491, 4, 0, -65490, 4, 0, -65489, 4, 0, -65488, 4, 0, -65487, 4, 0, -65486, 4, 0, -65485, 4, 0, 16, 3, 0, 17, 4, 0, 18, 4, 0, 19, 4, 0, 20, 4, 0, 21, 4, 0, 22, 4, 0, 23, 4, 0, 24, 4, 0, 25, 4, 0, 26, 4, 0, 27, 4, 0, 28, 4, 0, 29, 4, 0, 30, 4, 0, 31, 4, 0, 32, 4, 0, 33, 4, 0, 34, 4, 0, 35, 4, 0, 36, 4, 0, 37, 4, 0, 38, 4, 0, 39, 4, 0, 40, 4, 0, 41, 4, 0, 42, 4, 0, 43, 4, 0, 44, 4, 0, 45, 4, 0, 46, 4, 0, 47, 4, 0, 48, 4, 0, 49, 4, 0, 50, 4, 0, 51, 4, 0, 65552, 3, 0, 65553, 4, 0, 65554, 4, 0, 65555, 4, 0, 65556, 4, 0, 65557, 4, 0, 65558, 4, 0, 65559, 4, 0, 65560, 4, 0, 65561, 4, 0, 65562, 4, 0, 65563, 4, 0, 65564, 4, 0, 65565, 4, 0, 65566, 4, 0, 65567, 4, 0, 65568, 4, 0, 65569, 4, 0, 65570, 4, 0, 65571, 4, 0, 65572, 4, 0, 65573, 4, 0, 65574, 4, 0, 65575, 4, 0, 65576, 4, 0, 65577, 4, 0, 65578, 4, 0, 65579, 4, 0, 65580, 4, 0, 65581, 4, 0, 65582, 4, 0, 65583, 4, 0, 65584, 4, 0, 65585, 4, 0, 65586, 4, 0, 65587, 4, 0, 131088, 3, 0, 131089, 4, 0, 131090, 4, 0, 131091, 4, 0, 131092, 4, 0, 131093, 4, 0, 131094, 4, 0, 131095, 4, 0, 131096, 4, 0, 131097, 4, 0, 131098, 4, 0, 131099, 4, 0, 131100, 4, 0, 131101, 4, 0, 131102, 4, 0, 131103, 4, 0, 131104, 4, 0, 131105, 4, 0, 131106, 4, 0, 131107, 4, 0, 131108, 4, 0, 131109, 4, 0, 131110, 4, 0, 131111, 4, 0, 131112, 4, 0, 131113, 4, 0, 131114, 4, 0, 131115, 4, 0, 131116, 4, 0, 131117, 4, 0, 131118, 4, 0, 131119, 4, 0, 131120, 4, 0, 131121, 4, 0, 131122, 4, 0, 131123, 4, 0, 196624, 3, 0, 196625, 4, 0, 196626, 4, 0, 196627, 4, 0, 196628, 4, 0, 196629, 4, 0, 196630, 4, 0, 196631, 4, 0, 196632, 4, 0, 196633, 4, 0, 196634, 4, 0, 196635, 4, 0, 196636, 4, 0, 196637, 4, 0, 196638, 4, 0, 196639, 4, 0, 196640, 4, 0, 196641, 4, 0, 196642, 4, 0, 196643, 4, 0, 196644, 4, 0, 196645, 4, 0, 196646, 4, 0, 196647, 4, 0, 196648, 4, 0, 196649, 4, 0, 196650, 4, 0, 196651, 4, 0, 196652, 4, 0, 196653, 4, 0, 196654, 4, 0, 196655, 4, 0, 196656, 4, 0, 196657, 4, 0, 196658, 4, 0, 196659, 4, 0, 262160, 1073741824, 0, 262161, 1073741825, 0, 262162, 1073741825, 0, 262163, 1073741825, 0, 262164, 1073741825, 0, 262165, 1073741825, 0, 262166, 1073741825, 0, 262167, 1073741825, 0, 262168, 1073741825, 0, 262169, 1073741825, 0, 262170, 1073741825, 0, 262171, 1073741825, 0, 262172, 1073741825, 0, 262173, 1073741825, 0, 262174, 1073741825, 0, 262175, 1073741825, 0, 262176, 1073741825, 0, 262177, 1073741825, 0, 262178, 1073741825, 0, 262179, 1073741825, 0, 262180, 1073741825, 0, 262181, 1073741825, 0, 262182, 1073741825, 0, 262183, 1073741825, 0, 262184, 1073741825, 0, 262185, 1073741825, 0, 262186, 1073741825, 0, 262187, 1073741825, 0, 262188, 1073741825, 0, 262189, 1073741825, 0, 262190, 1073741825, 0, 262191, 1073741825, 0, 262192, 1073741825, 0, 262193, 1073741825, 0, 262194, 1073741825, 0, 262195, 1073741826, 0, 1245181, 1, 0, 1245182, 1, 0, 1245183, 1, 0, 1179648, 1, 0, 1179649, 1, 0, 1179650, 1, 0, 1179651, 1, 0, 1179652, 1, 0, 1179653, 1, 0, 1179654, 1, 0, 1179655, 1, 0, 1179656, 1, 0, 1179657, 1, 0, 1179658, 1, 0, 1179659, 1, 0, 1179660, 1, 0, 1179661, 1, 0, 1179662, 1, 0, 1179663, 1, 0, 1179664, 1, 0, 1179665, 1, 0, 1179666, 1, 0, 1179667, 1, 0, 1179668, 1, 0, 1179669, 1, 0, 1179670, 1, 0, 1179671, 1, 0, 1179672, 1, 0, 1179673, 1, 0, 1179674, 1, 0, 1179675, 1, 0, 1179676, 1, 0, 1179677, 1, 0, 1179678, 1, 0, 1179679, 1, 0, 1179680, 1, 0, 1179681, 1, 0, 1179682, 1, 0, 1310717, 4, 0, 1310718, 4, 0, 1310719, 4, 0, 1245184, 4, 0, 1245185, 4, 0, 1245186, 4, 0, 1245187, 4, 0, 1245188, 4, 0, 1245189, 4, 0, 1245190, 4, 0, 1245191, 4, 0, 1245192, 4, 0, 1245193, 4, 0, 1245194, 4, 0, 1245195, 4, 0, 1245196, 4, 0, 1245197, 4, 0, 1245198, 4, 0, 1245199, 4, 0, 1245200, 4, 0, 1245201, 4, 0, 1245202, 4, 0, 1245203, 4, 0, 1245204, 4, 0, 1245205, 4, 0, 1245206, 4, 0, 1245207, 4, 0, 1245208, 4, 0, 1245209, 4, 0, 1245210, 4, 0, 1245211, 4, 0, 1245212, 4, 0, 1245213, 4, 0, 1245214, 4, 0, 1245215, 4, 0, 1245216, 4, 0, 1245217, 4, 0, 1245218, 4, 0, 1376253, 4, 0, 1376254, 4, 0, 1376255, 4, 0, 1310720, 4, 0, 1310721, 4, 0, 1310722, 4, 0, 1310723, 4, 0, 1310724, 4, 0, 1310725, 4, 0, 1310726, 4, 0, 1310727, 4, 0, 1310728, 4, 0, 1310729, 4, 0, 1310730, 4, 0, 1310731, 4, 0, 1310732, 4, 0, 1310733, 4, 0, 1310734, 4, 0, 1310735, 4, 0, 1310736, 4, 0, 1310737, 4, 0, 1310738, 4, 0, 1310739, 4, 0, 1310740, 4, 0, 1310741, 4, 0, 1310742, 4, 0, 1310743, 4, 0, 1310744, 4, 0, 1310745, 4, 0, 1310746, 4, 0, 1310747, 4, 0, 1310748, 4, 0, 1310749, 4, 0, 1310750, 4, 0, 1310751, 4, 0, 1310752, 4, 0, 1310753, 4, 0, 1310754, 4, 0, 1441789, 4, 0, 1441790, 4, 0, 1441791, 4, 0, 1376256, 4, 0, 1376257, 4, 0, 1376258, 4, 0, 1376259, 4, 0, 1376260, 4, 0, 1376261, 4, 0, 1376262, 4, 0, 1376263, 4, 0, 1376264, 4, 0, 1376265, 4, 0, 1376266, 4, 0, 1376267, 4, 0, 1376268, 4, 0, 1376269, 4, 0, 1376270, 4, 0, 1376271, 4, 0, 1376272, 4, 0, 1376273, 4, 0, 1376274, 4, 0, 1376275, 4, 0, 1376276, 4, 0, 1376277, 4, 0, 1376278, 4, 0, 1376279, 4, 0, 1376280, 4, 0, 1376281, 4, 0, 1376282, 4, 0, 1376283, 4, 0, 1376284, 4, 0, 1376285, 4, 0, 1376286, 4, 0, 1376287, 4, 0, 1376288, 4, 0, 1376289, 4, 0, 1376290, 4, 0 )
__meta__ = {
"_edit_lock_": true
}

[node name="Player" parent="." instance=ExtResource( 2 )]
position = Vector2( 914.4, 789.819 )
rotation = 6.28319

[node name="VictoryFlag" type="Sprite" parent="."]
visible = false
position = Vector2( 1459.65, -377.391 )
scale = Vector2( 2, 2 )
texture = ExtResource( 3 )
script = ExtResource( 4 )
next_level = 0

[node name="HUD" parent="." instance=ExtResource( 5 )]

[node name="Goal" parent="." instance=ExtResource( 6 )]
position = Vector2( 1584.39, -314.611 )

[node name="Meteor6" parent="." instance=ExtResource( 7 )]
position = Vector2( 1584.06, 676.779 )
speed = 5

[node name="Meteor7" parent="." instance=ExtResource( 7 )]
position = Vector2( 1584.06, 420.29 )
speed = 5

[node name="Meteor8" parent="." instance=ExtResource( 7 )]
position = Vector2( 39.2338, -560.613 )
speed = 5
direction = Vector2( 1, 1 )

[node name="Meteor9" parent="." instance=ExtResource( 7 )]
position = Vector2( 34.3296, 343.294 )
speed = 5
direction = Vector2( 1, 0 )

[node name="Meteor10" parent="." instance=ExtResource( 7 )]
position = Vector2( 49.042, 642.45 )
speed = 5
direction = Vector2( 1, 0 )

[node name="Meteor11" parent="." instance=ExtResource( 7 )]
position = Vector2( 1158.94, -1077.41 )
speed = 5
direction = Vector2( 0, 1 )

[node name="Meteor12" parent="." instance=ExtResource( 7 )]
position = Vector2( 1931.67, -1038.63 )
speed = 5
direction = Vector2( 0, 1 )
[connection signal="start" from="Player" to="HUD" method="_on_Player_start"]
[connection signal="victory" from="Player" to="VictoryFlag" method="_on_Player_victory"]
