[gd_scene load_steps=8 format=2]

[ext_resource path="res://Assets/TileSet/TileMap.res" type="TileSet" id=1]
[ext_resource path="res://Entities/Player/Player.tscn" type="PackedScene" id=2]
[ext_resource path="res://Assets/Flag.png" type="Texture" id=3]
[ext_resource path="res://Entities/VictoryFlag.gd" type="Script" id=4]
[ext_resource path="res://Entities/Goal/Goal.tscn" type="PackedScene" id=5]
[ext_resource path="res://UI/HUD.tscn" type="PackedScene" id=6]
[ext_resource path="res://Entities/Meteor/Meteor.tscn" type="PackedScene" id=7]

[node name="Level4" type="Node2D"]
pause_mode = 2

[node name="TileMap" type="TileMap" parent="."]
scale = Vector2( 2, 2 )
tile_set = ExtResource( 1 )
cell_size = Vector2( 32, 32 )
format = 1
tile_data = PoolIntArray( 65533, 0, 0, 65534, 1, 0, 65535, 1, 0, 0, 1, 0, 1, 1, 0, 2, 1, 0, 3, 1, 0, 4, 1, 0, 5, 1, 0, 6, 1, 0, 7, 2, 0, 20, 0, 0, 21, 1, 0, 22, 1, 0, 23, 1, 0, 24, 1, 0, 25, 1, 0, 26, 1, 0, 27, 1, 0, 28, 1, 0, 29, 2, 0, 131069, 3, 0, 131070, 4, 0, 131071, 4, 0, 65536, 4, 0, 65537, 4, 0, 65538, 4, 0, 65539, 4, 0, 65540, 4, 0, 65541, 4, 0, 65542, 4, 0, 65543, 5, 0, 65556, 3, 0, 65557, 4, 0, 65558, 4, 0, 65559, 4, 0, 65560, 4, 0, 65561, 4, 0, 65562, 4, 0, 65563, 4, 0, 65564, 4, 0, 65565, 5, 0, 196605, 3, 0, 196606, 4, 0, 196607, 4, 0, 131072, 4, 0, 131073, 4, 0, 131074, 4, 0, 131075, 4, 0, 131076, 4, 0, 131077, 4, 0, 131078, 4, 0, 131079, 4, 0, 131080, 1, 0, 131081, 2, 0, 131090, 0, 0, 131091, 1, 0, 131092, 4, 0, 131093, 4, 0, 131094, 4, 0, 131095, 4, 0, 131096, 4, 0, 131097, 4, 0, 131098, 4, 0, 131099, 4, 0, 131100, 4, 0, 131101, 5, 0, 262141, 3, 0, 262142, 4, 0, 262143, 4, 0, 196608, 4, 0, 196609, 4, 0, 196610, 4, 0, 196611, 4, 0, 196612, 4, 0, 196613, 4, 0, 196614, 4, 0, 196615, 4, 0, 196616, 4, 0, 196617, 5, 0, 196626, 3, 0, 196627, 4, 0, 196628, 4, 0, 196629, 4, 0, 196630, 4, 0, 196631, 4, 0, 196632, 4, 0, 196633, 4, 0, 196634, 4, 0, 196635, 4, 0, 196636, 4, 0, 196637, 5, 0, 327677, 3, 0, 327678, 4, 0, 327679, 4, 0, 262144, 4, 0, 262145, 4, 0, 262146, 4, 0, 262147, 4, 0, 262148, 4, 0, 262149, 4, 0, 262150, 4, 0, 262151, 4, 0, 262152, 4, 0, 262153, 5, 0, 262162, 3, 0, 262163, 4, 0, 262164, 4, 0, 262165, 4, 0, 262166, 4, 0, 262167, 4, 0, 262168, 4, 0, 262169, 4, 0, 262170, 4, 0, 262171, 4, 0, 262172, 4, 0, 262173, 5, 0, 393213, 3, 0, 393214, 4, 0, 393215, 4, 0, 327680, 4, 0, 327681, 4, 0, 327682, 4, 0, 327683, 4, 0, 327684, 4, 0, 327685, 4, 0, 327686, 4, 0, 327687, 4, 0, 327688, 4, 0, 327689, 5, 0, 327698, 3, 0, 327699, 4, 0, 327700, 4, 0, 327701, 4, 0, 327702, 4, 0, 327703, 4, 0, 327704, 4, 0, 327705, 4, 0, 327706, 4, 0, 327707, 4, 0, 327708, 4, 0, 327709, 5, 0, 458749, 3, 0, 458750, 4, 0, 458751, 4, 0, 393216, 4, 0, 393217, 4, 0, 393218, 4, 0, 393219, 4, 0, 393220, 4, 0, 393221, 4, 0, 393222, 4, 0, 393223, 4, 0, 393224, 4, 0, 393225, 5, 0, 393234, 3, 0, 393235, 4, 0, 393236, 4, 0, 393237, 4, 0, 393238, 4, 0, 393239, 4, 0, 393240, 4, 0, 393241, 4, 0, 393242, 4, 0, 393243, 4, 0, 393244, 4, 0, 393245, 5, 0, 524285, 3, 0, 524286, 4, 0, 524287, 4, 0, 458752, 4, 0, 458753, 4, 0, 458754, 4, 0, 458755, 4, 0, 458756, 4, 0, 458757, 4, 0, 458758, 4, 0, 458759, 4, 0, 458760, 4, 0, 458761, 4, 0, 458762, 2, 0, 458769, 0, 0, 458770, 4, 0, 458771, 4, 0, 458772, 4, 0, 458773, 4, 0, 458774, 4, 0, 458775, 4, 0, 458776, 4, 0, 458777, 4, 0, 458778, 4, 0, 458779, 4, 0, 458780, 4, 0, 458781, 5, 0, 589821, 3, 0, 589822, 4, 0, 589823, 4, 0, 524288, 4, 0, 524289, 4, 0, 524290, 4, 0, 524291, 4, 0, 524292, 4, 0, 524293, 4, 0, 524294, 4, 0, 524295, 4, 0, 524296, 4, 0, 524297, 4, 0, 524298, 5, 0, 524305, 4, 0, 524306, 4, 0, 524307, 4, 0, 524308, 4, 0, 524309, 4, 0, 524310, 4, 0, 524311, 4, 0, 524312, 4, 0, 524313, 4, 0, 524314, 4, 0, 524315, 4, 0, 524316, 4, 0, 524317, 5, 0, 655357, 3, 0, 655358, 4, 0, 655359, 4, 0, 589824, 4, 0, 589825, 4, 0, 589826, 4, 0, 589827, 4, 0, 589828, 4, 0, 589829, 4, 0, 589830, 4, 0, 589831, 4, 0, 589832, 4, 0, 589833, 4, 0, 589834, 5, 0, 589841, 3, 0, 589842, 4, 0, 589843, 4, 0, 589844, 4, 0, 589845, 4, 0, 589846, 4, 0, 589847, 4, 0, 589848, 4, 0, 589849, 4, 0, 589850, 4, 0, 589851, 4, 0, 589852, 4, 0, 589853, 5, 0, 720893, 3, 0, 720894, 4, 0, 720895, 4, 0, 655360, 4, 0, 655361, 4, 0, 655362, 4, 0, 655363, 4, 0, 655364, 4, 0, 655365, 4, 0, 655366, 4, 0, 655367, 4, 0, 655368, 4, 0, 655369, 4, 0, 655370, 5, 0, 655377, 3, 0, 655378, 4, 0, 655379, 4, 0, 655380, 4, 0, 655381, 4, 0, 655382, 4, 0, 655383, 4, 0, 655384, 4, 0, 655385, 4, 0, 655386, 4, 0, 655387, 4, 0, 655388, 4, 0, 655389, 5, 0, 786429, 3, 0, 786430, 4, 0, 786431, 4, 0, 720896, 4, 0, 720897, 4, 0, 720898, 4, 0, 720899, 4, 0, 720900, 4, 0, 720901, 4, 0, 720902, 4, 0, 720903, 4, 0, 720904, 4, 0, 720905, 4, 0, 720906, 5, 0, 720913, 3, 0, 720914, 4, 0, 720915, 4, 0, 720916, 4, 0, 720917, 4, 0, 720918, 4, 0, 720919, 4, 0, 720920, 4, 0, 720921, 4, 0, 720922, 4, 0, 720923, 4, 0, 720924, 4, 0, 720925, 5, 0, 851965, 3, 0, 851966, 4, 0, 851967, 4, 0, 786432, 4, 0, 786433, 4, 0, 786434, 4, 0, 786435, 4, 0, 786436, 4, 0, 786437, 4, 0, 786438, 4, 0, 786439, 4, 0, 786440, 4, 0, 786441, 4, 0, 786442, 4, 0, 786443, 2, 0, 786448, 0, 0, 786449, 4, 0, 786450, 4, 0, 786451, 4, 0, 786452, 4, 0, 786453, 4, 0, 786454, 4, 0, 786455, 4, 0, 786456, 4, 0, 786457, 4, 0, 786458, 4, 0, 786459, 4, 0, 786460, 4, 0, 786461, 5, 0, 917501, 3, 0, 917502, 4, 0, 917503, 4, 0, 851968, 4, 0, 851969, 4, 0, 851970, 4, 0, 851971, 4, 0, 851972, 4, 0, 851973, 4, 0, 851974, 4, 0, 851975, 4, 0, 851976, 4, 0, 851977, 4, 0, 851978, 4, 0, 851979, 5, 0, 851984, 3, 0, 851985, 4, 0, 851986, 4, 0, 851987, 4, 0, 851988, 4, 0, 851989, 4, 0, 851990, 4, 0, 851991, 4, 0, 851992, 4, 0, 851993, 4, 0, 851994, 4, 0, 851995, 4, 0, 851996, 4, 0, 851997, 4, 0, 983037, 3, 0, 983038, 4, 0, 983039, 4, 0, 917504, 4, 0, 917505, 4, 0, 917506, 4, 0, 917507, 4, 0, 917508, 4, 0, 917509, 4, 0, 917510, 4, 0, 917511, 4, 0, 917512, 4, 0, 917513, 4, 0, 917514, 4, 0, 917515, 5, 0, 917520, 3, 0, 917521, 4, 0, 917522, 4, 0, 917523, 4, 0, 917524, 4, 0, 917525, 4, 0, 917526, 4, 0, 917527, 4, 0, 917528, 4, 0, 917529, 4, 0, 917530, 4, 0, 917531, 4, 0, 917532, 4, 0, 917533, 5, 0, 1048573, 3, 0, 1048574, 4, 0, 1048575, 4, 0, 983040, 4, 0, 983041, 4, 0, 983042, 4, 0, 983043, 4, 0, 983044, 4, 0, 983045, 4, 0, 983046, 4, 0, 983047, 4, 0, 983048, 4, 0, 983049, 4, 0, 983050, 4, 0, 983051, 4, 0, 983052, 1, 0, 983053, 1, 0, 983054, 1, 0, 983055, 1, 0, 983056, 4, 0, 983057, 4, 0, 983058, 4, 0, 983059, 4, 0, 983060, 4, 0, 983061, 4, 0, 983062, 4, 0, 983063, 4, 0, 983064, 4, 0, 983065, 4, 0, 983066, 4, 0, 983067, 4, 0, 983068, 4, 0, 983069, 4, 0, 983070, 1, 0, 983071, 1, 0, 983072, 1, 0, 983073, 1, 0, 983074, 1, 0, 1114109, 4, 0, 1114110, 4, 0, 1114111, 4, 0, 1048576, 4, 0, 1048577, 4, 0, 1048578, 4, 0, 1048579, 4, 0, 1048580, 4, 0, 1048581, 4, 0, 1048582, 4, 0, 1048583, 4, 0, 1048584, 4, 0, 1048585, 4, 0, 1048586, 4, 0, 1048587, 4, 0, 1048588, 4, 0, 1048589, 4, 0, 1048590, 4, 0, 1048591, 4, 0, 1048592, 4, 0, 1048593, 4, 0, 1048594, 4, 0, 1048595, 4, 0, 1048596, 4, 0, 1048597, 4, 0, 1048598, 4, 0, 1048599, 4, 0, 1048600, 4, 0, 1048601, 4, 0, 1048602, 4, 0, 1048603, 4, 0, 1048604, 4, 0, 1048605, 4, 0, 1048606, 4, 0, 1048607, 4, 0, 1048608, 4, 0, 1048609, 4, 0, 1048610, 4, 0, 1179645, 4, 0, 1179646, 4, 0, 1179647, 4, 0, 1114112, 4, 0, 1114113, 4, 0, 1114114, 4, 0, 1114115, 4, 0, 1114116, 4, 0, 1114117, 4, 0, 1114118, 4, 0, 1114119, 4, 0, 1114120, 4, 0, 1114121, 4, 0, 1114122, 4, 0, 1114123, 4, 0, 1114124, 4, 0, 1114125, 4, 0, 1114126, 4, 0, 1114127, 4, 0, 1114128, 4, 0, 1114129, 4, 0, 1114130, 4, 0, 1114131, 4, 0, 1114132, 4, 0, 1114133, 4, 0, 1114134, 4, 0, 1114135, 4, 0, 1114136, 4, 0, 1114137, 4, 0, 1114138, 4, 0, 1114139, 4, 0, 1114140, 4, 0, 1114141, 4, 0, 1114142, 4, 0, 1114143, 4, 0, 1114144, 4, 0, 1114145, 4, 0, 1114146, 4, 0, 1245181, 4, 0, 1245182, 4, 0, 1245183, 4, 0, 1179648, 4, 0, 1179649, 4, 0, 1179650, 4, 0, 1179651, 4, 0, 1179652, 4, 0, 1179653, 4, 0, 1179654, 4, 0, 1179655, 4, 0, 1179656, 4, 0, 1179657, 4, 0, 1179658, 4, 0, 1179659, 4, 0, 1179660, 4, 0, 1179661, 4, 0, 1179662, 4, 0, 1179663, 4, 0, 1179664, 4, 0, 1179665, 4, 0, 1179666, 4, 0, 1179667, 4, 0, 1179668, 4, 0, 1179669, 4, 0, 1179670, 4, 0, 1179671, 4, 0, 1179672, 4, 0, 1179673, 4, 0, 1179674, 4, 0, 1179675, 4, 0, 1179676, 4, 0, 1179677, 4, 0, 1179678, 4, 0, 1179679, 4, 0, 1179680, 4, 0, 1179681, 4, 0, 1179682, 4, 0, 1310717, 4, 0, 1310718, 4, 0, 1310719, 4, 0, 1245184, 4, 0, 1245185, 4, 0, 1245186, 4, 0, 1245187, 4, 0, 1245188, 4, 0, 1245189, 4, 0, 1245190, 4, 0, 1245191, 4, 0, 1245192, 4, 0, 1245193, 4, 0, 1245194, 4, 0, 1245195, 4, 0, 1245196, 4, 0, 1245197, 4, 0, 1245198, 4, 0, 1245199, 4, 0, 1245200, 4, 0, 1245201, 4, 0, 1245202, 4, 0, 1245203, 4, 0, 1245204, 4, 0, 1245205, 4, 0, 1245206, 4, 0, 1245207, 4, 0, 1245208, 4, 0, 1245209, 4, 0, 1245210, 4, 0, 1245211, 4, 0, 1245212, 4, 0, 1245213, 4, 0, 1245214, 4, 0, 1245215, 4, 0, 1245216, 4, 0, 1245217, 4, 0, 1245218, 4, 0, 1376253, 4, 0, 1376254, 4, 0, 1376255, 4, 0, 1310720, 4, 0, 1310721, 4, 0, 1310722, 4, 0, 1310723, 4, 0, 1310724, 4, 0, 1310725, 4, 0, 1310726, 4, 0, 1310727, 4, 0, 1310728, 4, 0, 1310729, 4, 0, 1310730, 4, 0, 1310731, 4, 0, 1310732, 4, 0, 1310733, 4, 0, 1310734, 4, 0, 1310735, 4, 0, 1310736, 4, 0, 1310737, 4, 0, 1310738, 4, 0, 1310739, 4, 0, 1310740, 4, 0, 1310741, 4, 0, 1310742, 4, 0, 1310743, 4, 0, 1310744, 4, 0, 1310745, 4, 0, 1310746, 4, 0, 1310747, 4, 0, 1310748, 4, 0, 1310749, 4, 0, 1310750, 4, 0, 1310751, 4, 0, 1310752, 4, 0, 1310753, 4, 0, 1310754, 4, 0, 1441789, 4, 0, 1441790, 4, 0, 1441791, 4, 0, 1376256, 4, 0, 1376257, 4, 0, 1376258, 4, 0, 1376259, 4, 0, 1376260, 4, 0, 1376261, 4, 0, 1376262, 4, 0, 1376263, 4, 0, 1376264, 4, 0, 1376265, 4, 0, 1376266, 4, 0, 1376267, 4, 0, 1376268, 4, 0, 1376269, 4, 0, 1376270, 4, 0, 1376271, 4, 0, 1376272, 4, 0, 1376273, 4, 0, 1376274, 4, 0, 1376275, 4, 0, 1376276, 4, 0, 1376277, 4, 0, 1376278, 4, 0, 1376279, 4, 0, 1376280, 4, 0, 1376281, 4, 0, 1376282, 4, 0, 1376283, 4, 0, 1376284, 4, 0, 1376285, 4, 0, 1376286, 4, 0, 1376287, 4, 0, 1376288, 4, 0, 1376289, 4, 0, 1376290, 4, 0 )
__meta__ = {
"_edit_lock_": true
}

[node name="Player" parent="." instance=ExtResource( 2 )]
position = Vector2( 367.534, -105.766 )
rotation = 6.28319

[node name="VictoryFlag" type="Sprite" parent="."]
visible = false
position = Vector2( 820.68, 902.694 )
scale = Vector2( 2, 2 )
texture = ExtResource( 3 )
script = ExtResource( 4 )
next_level = 5

[node name="Goal" parent="." instance=ExtResource( 5 )]
position = Vector2( 893.775, 964.681 )

[node name="HUD" parent="." instance=ExtResource( 6 )]

[node name="Meteor" parent="." instance=ExtResource( 7 )]
position = Vector2( 565.345, 37.9367 )
direction = Vector2( 1, 0 )

[node name="Meteor2" parent="." instance=ExtResource( 7 )]
position = Vector2( 1064.31, 484.146 )
[connection signal="start" from="Player" to="Meteor" method="_on_Player_start"]
[connection signal="start" from="Player" to="Meteor2" method="_on_Player_start"]
[connection signal="victory" from="Player" to="VictoryFlag" method="_on_Player_victory"]
[connection signal="meteor_hit" from="Meteor" to="Player" method="_on_meteor_hit"]
[connection signal="meteor_hit" from="Meteor2" to="Player" method="_on_meteor_hit"]
