[gd_scene load_steps=7 format=2]

[ext_resource path="res://Assets/TileSet/TileMap.res" type="TileSet" id=1]
[ext_resource path="res://Entities/Player/Player.tscn" type="PackedScene" id=2]
[ext_resource path="res://Assets/Flag.png" type="Texture" id=3]
[ext_resource path="res://Entities/VictoryFlag.gd" type="Script" id=4]
[ext_resource path="res://Entities/Goal/Goal.tscn" type="PackedScene" id=5]
[ext_resource path="res://UI/HUD.tscn" type="PackedScene" id=6]

[node name="Level1" type="Node2D"]
pause_mode = 2

[node name="TileMap" type="TileMap" parent="."]
scale = Vector2( 2, 2 )
tile_set = ExtResource( 1 )
cell_size = Vector2( 32, 32 )
format = 1
tile_data = PoolIntArray( 196625, 0, 0, 196626, 1, 0, 196627, 1, 0, 196628, 2, 0, 262161, 3, 0, 262162, 4, 0, 262163, 4, 0, 262164, 5, 0, 327697, 3, 0, 327698, 4, 0, 327699, 4, 0, 327700, 5, 0, 393233, 3, 0, 393234, 4, 0, 393235, 4, 0, 393236, 5, 0, 458769, 3, 0, 458770, 4, 0, 458771, 4, 0, 458772, 5, 0, 524305, 3, 0, 524306, 4, 0, 524307, 4, 0, 524308, 5, 0, 589841, 3, 0, 589842, 4, 0, 589843, 4, 0, 589844, 5, 0, 655377, 3, 0, 655378, 4, 0, 655379, 4, 0, 655380, 5, 0, 720913, 3, 0, 720914, 4, 0, 720915, 4, 0, 720916, 5, 0, 786449, 3, 0, 786450, 4, 0, 786451, 4, 0, 786452, 5, 0, 851985, 3, 0, 851986, 4, 0, 851987, 4, 0, 851988, 5, 0, 917521, 3, 0, 917522, 4, 0, 917523, 4, 0, 917524, 5, 0, 1048573, 1, 0, 1048574, 1, 0, 1048575, 1, 0, 983040, 1, 0, 983041, 1, 0, 983042, 1, 0, 983043, 1, 0, 983044, 1, 0, 983045, 1, 0, 983046, 1, 0, 983047, 1, 0, 983048, 1, 0, 983049, 1, 0, 983050, 1, 0, 983051, 1, 0, 983052, 1, 0, 983053, 1, 0, 983054, 1, 0, 983055, 1, 0, 983056, 1, 0, 983057, 4, 0, 983058, 4, 0, 983059, 4, 0, 983060, 4, 0, 983061, 1, 0, 983062, 1, 0, 983063, 1, 0, 983064, 1, 0, 983065, 1, 0, 983066, 1, 0, 983067, 1, 0, 983068, 1, 0, 983069, 1, 0, 983070, 1, 0, 983071, 1, 0, 983072, 1, 0, 983073, 1, 0, 983074, 1, 0, 1114109, 4, 0, 1114110, 4, 0, 1114111, 4, 0, 1048576, 4, 0, 1048577, 4, 0, 1048578, 4, 0, 1048579, 4, 0, 1048580, 4, 0, 1048581, 4, 0, 1048582, 4, 0, 1048583, 4, 0, 1048584, 4, 0, 1048585, 4, 0, 1048586, 4, 0, 1048587, 4, 0, 1048588, 4, 0, 1048589, 4, 0, 1048590, 4, 0, 1048591, 4, 0, 1048592, 4, 0, 1048593, 4, 0, 1048594, 4, 0, 1048595, 4, 0, 1048596, 4, 0, 1048597, 4, 0, 1048598, 4, 0, 1048599, 4, 0, 1048600, 4, 0, 1048601, 4, 0, 1048602, 4, 0, 1048603, 4, 0, 1048604, 4, 0, 1048605, 4, 0, 1048606, 4, 0, 1048607, 4, 0, 1048608, 4, 0, 1048609, 4, 0, 1048610, 4, 0, 1179645, 4, 0, 1179646, 4, 0, 1179647, 4, 0, 1114112, 4, 0, 1114113, 4, 0, 1114114, 4, 0, 1114115, 4, 0, 1114116, 4, 0, 1114117, 4, 0, 1114118, 4, 0, 1114119, 4, 0, 1114120, 4, 0, 1114121, 4, 0, 1114122, 4, 0, 1114123, 4, 0, 1114124, 4, 0, 1114125, 4, 0, 1114126, 4, 0, 1114127, 4, 0, 1114128, 4, 0, 1114129, 4, 0, 1114130, 4, 0, 1114131, 4, 0, 1114132, 4, 0, 1114133, 4, 0, 1114134, 4, 0, 1114135, 4, 0, 1114136, 4, 0, 1114137, 4, 0, 1114138, 4, 0, 1114139, 4, 0, 1114140, 4, 0, 1114141, 4, 0, 1114142, 4, 0, 1114143, 4, 0, 1114144, 4, 0, 1114145, 4, 0, 1114146, 4, 0, 1245181, 4, 0, 1245182, 4, 0, 1245183, 4, 0, 1179648, 4, 0, 1179649, 4, 0, 1179650, 4, 0, 1179651, 4, 0, 1179652, 4, 0, 1179653, 4, 0, 1179654, 4, 0, 1179655, 4, 0, 1179656, 4, 0, 1179657, 4, 0, 1179658, 4, 0, 1179659, 4, 0, 1179660, 4, 0, 1179661, 4, 0, 1179662, 4, 0, 1179663, 4, 0, 1179664, 4, 0, 1179665, 4, 0, 1179666, 4, 0, 1179667, 4, 0, 1179668, 4, 0, 1179669, 4, 0, 1179670, 4, 0, 1179671, 4, 0, 1179672, 4, 0, 1179673, 4, 0, 1179674, 4, 0, 1179675, 4, 0, 1179676, 4, 0, 1179677, 4, 0, 1179678, 4, 0, 1179679, 4, 0, 1179680, 4, 0, 1179681, 4, 0, 1179682, 4, 0, 1310717, 4, 0, 1310718, 4, 0, 1310719, 4, 0, 1245184, 4, 0, 1245185, 4, 0, 1245186, 4, 0, 1245187, 4, 0, 1245188, 4, 0, 1245189, 4, 0, 1245190, 4, 0, 1245191, 4, 0, 1245192, 4, 0, 1245193, 4, 0, 1245194, 4, 0, 1245195, 4, 0, 1245196, 4, 0, 1245197, 4, 0, 1245198, 4, 0, 1245199, 4, 0, 1245200, 4, 0, 1245201, 4, 0, 1245202, 4, 0, 1245203, 4, 0, 1245204, 4, 0, 1245205, 4, 0, 1245206, 4, 0, 1245207, 4, 0, 1245208, 4, 0, 1245209, 4, 0, 1245210, 4, 0, 1245211, 4, 0, 1245212, 4, 0, 1245213, 4, 0, 1245214, 4, 0, 1245215, 4, 0, 1245216, 4, 0, 1245217, 4, 0, 1245218, 4, 0, 1376253, 4, 0, 1376254, 4, 0, 1376255, 4, 0, 1310720, 4, 0, 1310721, 4, 0, 1310722, 4, 0, 1310723, 4, 0, 1310724, 4, 0, 1310725, 4, 0, 1310726, 4, 0, 1310727, 4, 0, 1310728, 4, 0, 1310729, 4, 0, 1310730, 4, 0, 1310731, 4, 0, 1310732, 4, 0, 1310733, 4, 0, 1310734, 4, 0, 1310735, 4, 0, 1310736, 4, 0, 1310737, 4, 0, 1310738, 4, 0, 1310739, 4, 0, 1310740, 4, 0, 1310741, 4, 0, 1310742, 4, 0, 1310743, 4, 0, 1310744, 4, 0, 1310745, 4, 0, 1310746, 4, 0, 1310747, 4, 0, 1310748, 4, 0, 1310749, 4, 0, 1310750, 4, 0, 1310751, 4, 0, 1310752, 4, 0, 1310753, 4, 0, 1310754, 4, 0, 1441789, 4, 0, 1441790, 4, 0, 1441791, 4, 0, 1376256, 4, 0, 1376257, 4, 0, 1376258, 4, 0, 1376259, 4, 0, 1376260, 4, 0, 1376261, 4, 0, 1376262, 4, 0, 1376263, 4, 0, 1376264, 4, 0, 1376265, 4, 0, 1376266, 4, 0, 1376267, 4, 0, 1376268, 4, 0, 1376269, 4, 0, 1376270, 4, 0, 1376271, 4, 0, 1376272, 4, 0, 1376273, 4, 0, 1376274, 4, 0, 1376275, 4, 0, 1376276, 4, 0, 1376277, 4, 0, 1376278, 4, 0, 1376279, 4, 0, 1376280, 4, 0, 1376281, 4, 0, 1376282, 4, 0, 1376283, 4, 0, 1376284, 4, 0, 1376285, 4, 0, 1376286, 4, 0, 1376287, 4, 0, 1376288, 4, 0, 1376289, 4, 0, 1376290, 4, 0 )
__meta__ = {
"_edit_lock_": true
}

[node name="Player" parent="." instance=ExtResource( 2 )]
position = Vector2( 202, 565 )
rotation = 6.28319

[node name="VictoryFlag" type="Sprite" parent="."]
visible = false
position = Vector2( 1096.39, 136.717 )
scale = Vector2( 2, 2 )
texture = ExtResource( 3 )
script = ExtResource( 4 )
next_level = 2

[node name="Goal" parent="." instance=ExtResource( 5 )]
position = Vector2( 1219.76, 197.32 )

[node name="HUD" parent="." instance=ExtResource( 6 )]
[connection signal="victory" from="Player" to="VictoryFlag" method="_on_Player_victory"]
